{
    "/public/packages/dendev/report/js/chart.js": "/public/packages/dendev/report/js/chart.js",
    "/public/packages/dendev/report/css/statistic.css": "/public/packages/dendev/report/css/statistic.css"
}
